{
    "map": [
        {
            "index": 529,
            "type": 18,
            "direction": 3
        },
        {
            "index": 579,
            "type": 2,
            "direction": 3
        },
        {
            "index": 629,
            "type": 2,
            "direction": 3
        },
        {
            "index": 679,
            "type": 2,
            "direction": 3
        },
        {
            "index": 729,
            "type": 2,
            "direction": 3
        },
        {
            "index": 779,
            "type": 2,
            "direction": 3
        },
        {
            "index": 829,
            "type": 2,
            "direction": 3
        },
        {
            "index": 871,
            "type": 20,
            "direction": 1
        },
        {
            "index": 872,
            "type": 3,
            "direction": 1
        },
        {
            "index": 873,
            "type": 3,
            "direction": 1
        },
        {
            "index": 874,
            "type": 6,
            "direction": 2
        },
        {
            "index": 875,
            "type": 3,
            "direction": 1
        },
        {
            "index": 876,
            "type": 3,
            "direction": 1
        },
        {
            "index": 877,
            "type": 3,
            "direction": 1
        },
        {
            "index": 878,
            "type": 3,
            "direction": 1
        },
        {
            "index": 879,
            "type": 7,
            "direction": 1
        },
        {
            "index": 880,
            "type": 3,
            "direction": 1
        },
        {
            "index": 881,
            "type": 3,
            "direction": 1
        },
        {
            "index": 882,
            "type": 3,
            "direction": 1
        },
        {
            "index": 883,
            "type": 3,
            "direction": 1
        },
        {
            "index": 884,
            "type": 3,
            "direction": 1
        },
        {
            "index": 885,
            "type": 3,
            "direction": 1
        },
        {
            "index": 886,
            "type": 3,
            "direction": 1
        },
        {
            "index": 887,
            "type": 3,
            "direction": 1
        },
        {
            "index": 888,
            "type": 3,
            "direction": 1
        },
        {
            "index": 889,
            "type": 3,
            "direction": 1
        },
        {
            "index": 890,
            "type": 21,
            "direction": 1
        },
        {
            "index": 924,
            "type": 2,
            "direction": 2
        },
        {
            "index": 974,
            "type": 2,
            "direction": 2
        },
        {
            "index": 1024,
            "type": 2,
            "direction": 2
        },
        {
            "index": 1074,
            "type": 19,
            "direction": 2
        }
    ],
    "targetScore": 5,
    "playTime": 40
}